<?xml version="1.0" encoding="UTF-8"?>
<session version="1.0">
<refactoring comment="Delete resource &apos;tp2_shuo_xu&apos;" deleteContents="false" description="Delete resource &apos;tp2_shuo_xu&apos;" element1="/tp2_shuo_xu" flags="7" id="org.eclipse.ltk.core.refactoring.delete.resources" resources="1" stamp="1537193894979"/>
</session>